{
  "info": {
    "author": "",
    "author_email": "Stefan Hagen <stefan@hagen.link>",
    "bugtrack_url": null,
    "classifiers": [
      "Development Status :: 3 - Alpha",
      "Intended Audience :: Developers",
      "License :: OSI Approved :: MIT License",
      "Programming Language :: Python :: 3.10",
      "Programming Language :: Python :: 3.11"
    ],
    "description": "# Kiertotie\n\nDetour (Finnish: kiertotie) per rsync proxy to https mirror node.\n\n[License: MIT](https://git.sr.ht/~sthagen/kiertotie/tree/default/item/LICENSE)\n\nThird party dependencies are documented in the folder [third-party](third-party/README.md).\n\n[![version](https://img.shields.io/pypi/v/kiertotie.svg?style=flat)](https://pypi.python.org/pypi/kiertotie/)\n[![downloads](https://pepy.tech/badge/kiertotie/month)](https://pepy.tech/project/kiertotie)\n[![wheel](https://img.shields.io/pypi/wheel/kiertotie.svg?style=flat)](https://pypi.python.org/pypi/kiertotie/)\n[![supported-versions](https://img.shields.io/pypi/pyversions/kiertotie.svg?style=flat)](https://pypi.python.org/pypi/kiertotie/)\n[![supported-implementations](https://img.shields.io/pypi/implementation/kiertotie.svg?style=flat)](https://pypi.python.org/pypi/kiertotie/)\n\n## Documentation\n\nUser and developer [documentation of kiertotie](https://codes.dilettant.life/docs/kiertotie).\n\n## Bug Tracker\n\nFeature requests and bug reports are best entered in the [todos of kiertotie](https://todo.sr.ht/~sthagen/kiertotie).\n\n## Primary Source repository\n\nThe main source of `kiertotie` is on a mountain in central Switzerland.\nWe use distributed version control (git). No central hub. Each clone can become a new source for the benefit of all.\nThe preferred public clones of `kiertotie` are:\n\n* [on codeberg](https://codeberg.org/sthagen/kiertotie) - a democratic community-driven, non-profit software development platform operated by Codeberg e.V.\n* [at sourcehut](https://git.sr.ht/~sthagen/kiertotie) - a collection of tools useful for software development.\n\n# Status\n\nExperimental.\n\n**Note**: The default branch is `default`. \n",
    "description_content_type": "text/markdown",
    "docs_url": null,
    "download_url": "",
    "downloads": {
      "last_day": -1,
      "last_month": -1,
      "last_week": -1
    },
    "dynamic": null,
    "home_page": "",
    "keywords": "developer-tools,validation,verification",
    "license": "",
    "license_expression": null,
    "license_files": null,
    "maintainer": "",
    "maintainer_email": "Stefan Hagen <stefan@hagen.link>",
    "name": "kiertotie",
    "package_url": "https://pypi.org/project/kiertotie/",
    "platform": null,
    "project_url": "https://pypi.org/project/kiertotie/",
    "project_urls": {
      "Bug-Tracker": "https://todo.sr.ht/~sthagen/kiertotie",
      "Documentation": "https://codes.dilettant.life/docs/kiertotie",
      "Homepage": "https://git.sr.ht/~sthagen/kiertotie",
      "Source-Code": "https://git.sr.ht/~sthagen/kiertotie",
      "Test-Coverage": "https://codes.dilettant.life/coverage/kiertotie"
    },
    "provides_extra": null,
    "release_url": "https://pypi.org/project/kiertotie/2023.1.5/",
    "requires_dist": [
      "Babel (>=2.11.0)",
      "PyYAML (>=6.0)",
      "typer (>=0.7.0)",
      "black ; extra == 'dev'",
      "coverage ; extra == 'dev'",
      "hypothesis ; extra == 'dev'",
      "mypy ; extra == 'dev'",
      "pytest ; extra == 'dev'",
      "pytest-cov ; extra == 'dev'",
      "pytest-flake8 ; extra == 'dev'",
      "ruff ; extra == 'dev'"
    ],
    "requires_python": ">=3.10",
    "summary": "Detour (Finnish: kiertotie) per rsync proxy to https mirror node.",
    "version": "2023.1.5",
    "yanked": false,
    "yanked_reason": null
  },
  "last_serial": 16322621,
  "releases": {
    "2022.11.20": [
      {
        "comment_text": "",
        "digests": {
          "blake2b_256": "5159b91428990eb938a81133c2dde613025b229e27c7776166b36e03c836c759",
          "md5": "f443942071dc45c3c9d240b40b73abac",
          "sha256": "d0fa8ffa1b7c709048d98451e9a6bccb0b15c6e5779d94438bbfb95ea1c88dc0"
        },
        "downloads": -1,
        "filename": "kiertotie-2022.11.20-py2.py3-none-any.whl",
        "has_sig": false,
        "md5_digest": "f443942071dc45c3c9d240b40b73abac",
        "packagetype": "bdist_wheel",
        "python_version": "py2.py3",
        "requires_python": ">=3.10",
        "size": 11819,
        "upload_time": "2022-11-20T20:38:54",
        "upload_time_iso_8601": "2022-11-20T20:38:54.519556Z",
        "url": "https://files.pythonhosted.org/packages/51/59/b91428990eb938a81133c2dde613025b229e27c7776166b36e03c836c759/kiertotie-2022.11.20-py2.py3-none-any.whl",
        "yanked": false,
        "yanked_reason": null
      },
      {
        "comment_text": "",
        "digests": {
          "blake2b_256": "e75c9bce344b5639d3406bf49e75e0f1c0b682dafc2470e0ff5717354db3b7db",
          "md5": "f4c8ae94bf880f048c6fb56184416f6f",
          "sha256": "39a68972aaac383000df039e72e02d67e9df2c20f1e6f525f4465b255f4ad2f0"
        },
        "downloads": -1,
        "filename": "kiertotie-2022.11.20.tar.gz",
        "has_sig": false,
        "md5_digest": "f4c8ae94bf880f048c6fb56184416f6f",
        "packagetype": "sdist",
        "python_version": "source",
        "requires_python": ">=3.10",
        "size": 25071,
        "upload_time": "2022-11-20T20:38:57",
        "upload_time_iso_8601": "2022-11-20T20:38:57.435561Z",
        "url": "https://files.pythonhosted.org/packages/e7/5c/9bce344b5639d3406bf49e75e0f1c0b682dafc2470e0ff5717354db3b7db/kiertotie-2022.11.20.tar.gz",
        "yanked": false,
        "yanked_reason": null
      }
    ],
    "2022.11.21": [
      {
        "comment_text": "",
        "digests": {
          "blake2b_256": "040fed143ce8cc11b0c47969363be5afa38a46a910e1cc125aeab3970ecdb36e",
          "md5": "5387db8b13dd6bddaa35de34db7f8355",
          "sha256": "32955f446b44450466dfb0392bc69b47288ec8cc6b02964aba22c7c0de458b29"
        },
        "downloads": -1,
        "filename": "kiertotie-2022.11.21-py2.py3-none-any.whl",
        "has_sig": false,
        "md5_digest": "5387db8b13dd6bddaa35de34db7f8355",
        "packagetype": "bdist_wheel",
        "python_version": "py2.py3",
        "requires_python": ">=3.10",
        "size": 11845,
        "upload_time": "2022-11-20T21:22:17",
        "upload_time_iso_8601": "2022-11-20T21:22:17.497440Z",
        "url": "https://files.pythonhosted.org/packages/04/0f/ed143ce8cc11b0c47969363be5afa38a46a910e1cc125aeab3970ecdb36e/kiertotie-2022.11.21-py2.py3-none-any.whl",
        "yanked": false,
        "yanked_reason": null
      },
      {
        "comment_text": "",
        "digests": {
          "blake2b_256": "a70b285e1b143c0b484c2aaf120a2ddb92a0d388197485d27d749590d85f4856",
          "md5": "446201779fc0ca88365973f97de029cb",
          "sha256": "ee0ad16613e128b32edc1d03ad067fbfc04263635943d03b8354f8475e8b34e0"
        },
        "downloads": -1,
        "filename": "kiertotie-2022.11.21.tar.gz",
        "has_sig": false,
        "md5_digest": "446201779fc0ca88365973f97de029cb",
        "packagetype": "sdist",
        "python_version": "source",
        "requires_python": ">=3.10",
        "size": 25115,
        "upload_time": "2022-11-20T21:22:19",
        "upload_time_iso_8601": "2022-11-20T21:22:19.245561Z",
        "url": "https://files.pythonhosted.org/packages/a7/0b/285e1b143c0b484c2aaf120a2ddb92a0d388197485d27d749590d85f4856/kiertotie-2022.11.21.tar.gz",
        "yanked": false,
        "yanked_reason": null
      }
    ],
    "2023.1.5": [
      {
        "comment_text": "",
        "digests": {
          "blake2b_256": "f41e5c4abf4ced32098125d1484997ea42b0191557dba4d4721baeb71b7d81d6",
          "md5": "7e1898ffdb43369721a260a170b808d9",
          "sha256": "b300af2956c6810930021abea212899fec07d385a4a785f404a9e4eb78cff249"
        },
        "downloads": -1,
        "filename": "kiertotie-2023.1.5-py3-none-any.whl",
        "has_sig": false,
        "md5_digest": "7e1898ffdb43369721a260a170b808d9",
        "packagetype": "bdist_wheel",
        "python_version": "py3",
        "requires_python": ">=3.10",
        "size": 11890,
        "upload_time": "2023-01-05T22:12:33",
        "upload_time_iso_8601": "2023-01-05T22:12:33.467576Z",
        "url": "https://files.pythonhosted.org/packages/f4/1e/5c4abf4ced32098125d1484997ea42b0191557dba4d4721baeb71b7d81d6/kiertotie-2023.1.5-py3-none-any.whl",
        "yanked": false,
        "yanked_reason": null
      },
      {
        "comment_text": "",
        "digests": {
          "blake2b_256": "bafd92794f43c0e266d023a794af3531f13778d4bcc5458e91c337d0f790d721",
          "md5": "6219e2d8084e12b5a4b8d152253530de",
          "sha256": "51ac50d8f4109a340241bad4ee855d8a97c4e27488e2e31e11893cf518a8698e"
        },
        "downloads": -1,
        "filename": "kiertotie-2023.1.5.tar.gz",
        "has_sig": false,
        "md5_digest": "6219e2d8084e12b5a4b8d152253530de",
        "packagetype": "sdist",
        "python_version": "source",
        "requires_python": ">=3.10",
        "size": 10824,
        "upload_time": "2023-01-05T22:12:35",
        "upload_time_iso_8601": "2023-01-05T22:12:35.053475Z",
        "url": "https://files.pythonhosted.org/packages/ba/fd/92794f43c0e266d023a794af3531f13778d4bcc5458e91c337d0f790d721/kiertotie-2023.1.5.tar.gz",
        "yanked": false,
        "yanked_reason": null
      }
    ]
  },
  "urls": [
    {
      "comment_text": "",
      "digests": {
        "blake2b_256": "f41e5c4abf4ced32098125d1484997ea42b0191557dba4d4721baeb71b7d81d6",
        "md5": "7e1898ffdb43369721a260a170b808d9",
        "sha256": "b300af2956c6810930021abea212899fec07d385a4a785f404a9e4eb78cff249"
      },
      "downloads": -1,
      "filename": "kiertotie-2023.1.5-py3-none-any.whl",
      "has_sig": false,
      "md5_digest": "7e1898ffdb43369721a260a170b808d9",
      "packagetype": "bdist_wheel",
      "python_version": "py3",
      "requires_python": ">=3.10",
      "size": 11890,
      "upload_time": "2023-01-05T22:12:33",
      "upload_time_iso_8601": "2023-01-05T22:12:33.467576Z",
      "url": "https://files.pythonhosted.org/packages/f4/1e/5c4abf4ced32098125d1484997ea42b0191557dba4d4721baeb71b7d81d6/kiertotie-2023.1.5-py3-none-any.whl",
      "yanked": false,
      "yanked_reason": null
    },
    {
      "comment_text": "",
      "digests": {
        "blake2b_256": "bafd92794f43c0e266d023a794af3531f13778d4bcc5458e91c337d0f790d721",
        "md5": "6219e2d8084e12b5a4b8d152253530de",
        "sha256": "51ac50d8f4109a340241bad4ee855d8a97c4e27488e2e31e11893cf518a8698e"
      },
      "downloads": -1,
      "filename": "kiertotie-2023.1.5.tar.gz",
      "has_sig": false,
      "md5_digest": "6219e2d8084e12b5a4b8d152253530de",
      "packagetype": "sdist",
      "python_version": "source",
      "requires_python": ">=3.10",
      "size": 10824,
      "upload_time": "2023-01-05T22:12:35",
      "upload_time_iso_8601": "2023-01-05T22:12:35.053475Z",
      "url": "https://files.pythonhosted.org/packages/ba/fd/92794f43c0e266d023a794af3531f13778d4bcc5458e91c337d0f790d721/kiertotie-2023.1.5.tar.gz",
      "yanked": false,
      "yanked_reason": null
    }
  ],
  "vulnerabilities": []
}